{
    "CN": "Zap Signing CA",
    "key": {
        "algo": "rsa",
        "size": 2048
    },
    "names": [
        {
            "C": "US",
            "O": "Zap",
            "OU": "Zap Signing CA"
        }
    ],
    "ca": {
        "expiry": "43800h"
    }
}

