{
    "signing": {
        "default": {
            "expiry": "168h"
        },
        "profiles": {
            "intermediate_ca": {
                "usages": [
                    "digital signature",
                    "cert sign",
                    "crl sign",
                    "signing"
                ],
                "expiry": "262800h",
                "ca_constraint": {
                    "is_ca": true
                }
            },
            "signing_ca": {
                "usages": [
                    "digital signature",
                    "cert sign",
                    "crl sign",
                    "signing"
                ],
                "expiry": "43800h",
                "ca_constraint": {
                    "is_ca": true,
                    "max_path_len": 0,
                    "max_path_len_zero": true
                }
            },
            "peer": {
                "expiry": "8760h",
                "usages": [
                    "signing",
                    "key encipherment",
                    "server auth",
                    "client auth"
                ]
            },
            "user": {
                "expiry": "4380h",
                "usages": [
                    "signing",
                    "key encipherment",
                    "server auth",
                    "client auth"
                ]
            }
        }
    }
}
